{
    "name": "Week",
    "alias": "week",
    "description": "",
    "keywords": [],
    "priority": 0,
    "providers": [
        "Modules\\Week\\Providers\\WeekServiceProvider"
    ],
    "aliases": {},
    "files": [],
    "requires": []
}
